<svg width="20" height="20" viewBox="0 0 20 20" fill="none" xmlns="http://www.w3.org/2000/svg">
<g opacity="0.4">
<path fill-rule="evenodd" clip-rule="evenodd" d="M9.84615 0C4.41705 0 0 4.41705 0 9.84615C0 15.2753 4.41705 19.6923 9.84615 19.6923C15.2753 19.6923 19.6923 15.2753 19.6923 9.84615C19.6923 4.41705 15.2752 0 9.84615 0ZM2.46152 9.84615C2.46152 8.25375 2.97323 6.78148 3.83368 5.57406L14.1182 15.8586C12.9108 16.719 11.4385 17.2308 9.84612 17.2308C5.77405 17.2308 2.46152 13.9183 2.46152 9.84615ZM5.57402 3.83368L15.8586 14.1183C16.719 12.9108 17.2307 11.4386 17.2307 9.84612C17.2307 5.77401 13.9182 2.46152 9.84612 2.46152C8.25371 2.46152 6.78144 2.97327 5.57402 3.83368Z" fill="white"/>
</g>
</svg>
