<svg width="20" height="20" viewBox="0 0 20 20" fill="none" xmlns="http://www.w3.org/2000/svg">
<g opacity="0.4">
<path d="M13.0597 19.2334H6.24788C5.95136 19.2334 5.69892 19.017 5.65404 18.7237L4.85265 13.5147C4.82621 13.3416 4.87589 13.1645 4.99049 13.0314C5.10509 12.8984 5.27098 12.8223 5.44648 12.8223H13.8611C14.0366 12.8223 14.2033 12.8992 14.3171 13.0322C14.4309 13.1653 14.4814 13.3416 14.4549 13.5155L13.6535 18.7245C13.6087 19.017 13.3562 19.2334 13.0597 19.2334Z" fill="white"/>
<circle cx="9.65381" cy="3.20557" r="3.20557" fill="white"/>
<path d="M18.643 10.4181C18.5156 8.6414 17.5604 6.99695 16.0642 6.00242C16.0602 5.34208 15.524 4.80835 14.8629 4.80835C14.1993 4.80835 13.6608 5.34688 13.6608 6.01044C13.6608 6.67399 14.1993 7.21252 14.8629 7.21252C15.0825 7.21252 15.2852 7.14921 15.4623 7.04664C16.5899 7.82318 17.3183 9.06774 17.441 10.4181H16.0169C15.7284 8.60694 14.1577 7.21252 12.2584 7.21252H7.04931C5.15001 7.21252 3.57929 8.60694 3.29078 10.4181H0.638179C0.21264 10.4181 -0.0622367 10.8492 0.0691914 11.2275L1.67197 15.6351C1.76013 15.8675 1.98452 16.0278 2.24096 16.0278H3.61935L3.26674 13.7599C3.17058 13.1188 3.3549 12.4777 3.77162 11.9888C4.12904 11.5601 4.76134 11.2195 5.44653 11.2195H13.8611C14.4662 11.2195 15.0768 11.4687 15.536 11.9888C15.9528 12.4777 16.1371 13.1188 16.0409 13.7599L15.6883 16.0278H17.0667C17.3231 16.0278 17.5475 15.8675 17.6357 15.6351L19.2385 11.2275C19.3651 10.8629 19.1231 10.4181 18.643 10.4181Z" fill="white"/>
</g>
</svg>
